,,,,,,,,,,
,,,,,IBL,PIX,SCT,,,
,,,,,,,,,,
ID Rack,FTK Rack,Rob ID,Cable ID,FTK Shelf-Slot,FTK IM Lane,Type,Subtype,Readout,,
,,,,,,,,,,
,,,,,,,,,,
Y.16-14.A2,Y.06-07.A2,0x140062,3040663,1-3-1,0,IBL,,(missing?),,
Y.16-14.A2,Y.06-07.A2,0x140072,3040667,1-3-2,8,IBL,,,,
Y.27-05.A2,Y.06-07.A2,0x112512,3040486,1-3-3,2,Pixel L1/2,L2,new (missing?),,
Y.28-05.A2,Y.06-07.A2,0x111707,3040480,1-3-4,4,Pixel L1/2,L3,old,,
Y.29-05.A2,Y.06-07.A2,0x111806,3040535,1-3-5,6,Pixel L1/2,L4,old,,
Y.29-05.A2,Y.06-07.A2,0x111808,3040537,1-3-6,10,Pixel L1/2,L4,old,,
Y.26-05.A2,Y.06-07.A2,0x130251,3040469,1-3-7,12,Pixel BL,B3,,,
Y.26-05.A2,Y.06-07.A2,0x130250,3040466,1-3-8,14,Pixel BL,B3,,,
Y.23-11.A2,Y.06-07.A2,0x220009,3040320,1-3-9,1,SCT,,,,
Y.25-14.A2,Y.06-07.A2,0x240106,3040360,1-3-10,5,SCT,,,,
Y.25-14.A2,Y.06-07.A2,0x240102,3040356,1-3-11,3,SCT,,,,
Y.23-11.A2,Y.06-07.A2,0x220008,3040319,1-3-12,13,SCT,,,,
,,0x121657,3040481,,11,Pixel L1/2 EC,,Pixel Endcap Double,,
,,,,,,,,,,
,,,,,,,,,,
,,,,,,,,,,
Y.16-14.A2,Y.06-07.A2,0x140092,3040675,1-4-1,0,IBL,,,,
Y.16-14.A2,Y.06-07.A2,0x140091,3040674,1-4-2,8,IBL,,,,
Y.27-05.A2,Y.06-07.A2,0x112515,3040488,1-4-3,2,Pixel L1/2,L2,new,,
Y.29-05.A2,Y.06-07.A2,0x111810,3040539,1-4-4,4,Pixel L1/2,L4,old,,
Y.25-05.A2,Y.06-07.A2,0x130210,3040449,1-4-5,6,Pixel BL,B2,,,
Y.26-05.A2,Y.06-07.A2,0x130252,3040470,1-4-6,10,Pixel BL,B3,,,
Y.27-05.A2,Y.06-07.A2,0x112559,3040505,1-4-7,12,Pixel L1/2,,new,,
Y.27-05.A2,Y.06-07.A2,0x112555,3040501,1-4-8,14,Pixel L1/2,,new,,
Y.25-14.A2,Y.06-07.A2,0x240101,3040355,1-4-9,1,SCT,,,,
Y.25-14.A2,Y.06-07.A2,0x240103,3040357,1-4-10,5,SCT,,,,
Y.23-11.A2,Y.06-07.A2,0x22000b,3040322,1-4-11,3,SCT,,,,
Y.23-11.A2,Y.06-07.A2,0x22000a,3040321,1-4-12,13,SCT,,,,
,,0x121656,3040551,,11,Pixel L1/2 EC,,Pixel Endcap Double,,
,,,,,,,,,,
,,,,,,,,,,
,,,,,,,,,,
Y.16-14.A2,Y.06-07.A2,0x140070,3040665,1-5-1,0,IBL,,,,No label. Marked FCER-OC0017-23M FIB.13.33.023. Guess based on neighbouring fibre cable IDs.
Y.16-14.A2,Y.06-07.A2,0x140071,3040666,1-5-2,8,IBL,,(missing?),,
Y.27-05.A2,Y.06-07.A2,0x112514,3040487,1-5-3,2,Pixel L1/2,L2,new,,
Y.28-05.A2,Y.06-07.A2,0x111705,3040478,1-5-4,4,Pixel L1/2,L3,old,,
Y.26-05.A2,Y.06-07.A2,0x120357,3040465,1-5-5,6,Pixel L1/2 EC,D1,,,
Y.29-05.A2,Y.06-07.A2,0x111807,3040536,1-5-6,10,Pixel L1/2,L4,old,,
Y.29-05.A2,Y.06-07.A2,0x111805,3040534,1-5-7,12,Pixel L1/2,L4,old,,
Y.26-05.A2,Y.06-07.A2,0x130211,3040468,1-5-8,14,Pixel BL,B3,,,
Y.22-11.A2,Y.06-07.A2,0x21000a,3040303,1-5-9,1,SCT,,,,
Y.24-14.A2,Y.06-07.A2,0x230009,3040347,1-5-10,5,SCT,,,,
Y.24-14.A2,Y.06-07.A2,0x23000b,3040349,1-5-11,11,SCT,,,,
Y.24-14.A2,Y.06-07.A2,0x23000f,3040353,1-5-12,13,SCT,,,,
,,,,,,,,,,
,,,,,,,,,,
,,,,,,,,,,
Y.16-14.A2,Y.06-07.A2,0x140061,3040691,1-6-1,0,IBL,,,,
Y.16-14.A2,Y.06-07.A2,0x140123,3040688,1-6-2,8,IBL,,,,
Y.28-05.A2,Y.06-07.A2,0x121617,3040522,1-6-3,2,Pixel L1/2 EC,D2,,needs 121657,
Y.28-05.A2,Y.06-07.A2,0x111708,3040512,1-6-4,4,Pixel L1/2,L3,old,,
Y.26-05.A2,Y.06-07.A2,0x130212,3040471,1-6-5,6,Pixel BL,B3,,,
Y.27-05.A2,Y.06-07.A2,0x112554,3040500,1-6-6,10,Pixel L1/2,,new,,
Y.29-05.A2,Y.06-07.A2,0x111847,3040544,1-6-7,12,Pixel L1/2,L4,old,,
Y.26-05.A2,Y.06-07.A2,0x120317,3040463,1-6-8,14,Pixel L1/2 EC,D1,,,
Y.22-11.A2,Y.06-07.A2,0x21000b,3040304,1-6-9,1,SCT,,,,
Y.24-14.A2,Y.06-07.A2,0x23000c,3040350,1-6-10,5,SCT,,,,
Y.24-14.A2,Y.06-07.A2,0x23000a,3040348,1-6-11,11,SCT,,,,
Y.24-14.A2,Y.06-07.A2,0x23000e,3040352,1-6-12,13,SCT,,,,
,,,,,,,,,,
,,,,,,,,,,
,,,,,,,,,,
Y.16-14.A2,Y.06-07.A2,0x140073,3040668,1-7-1,0,IBL,,,,
Y.16-14.A2,Y.06-07.A2,0x140111,3040682,1-7-2,8,IBL,,,,
Y.27-05.A2,Y.06-07.A2,0x112519,3040492,1-7-3,2,Pixel L1/2,L2,new,,
Y.27-05.A2,Y.06-07.A2,0x112517,3040490,1-7-4,4,Pixel L1/2,L2,new,,
Y.28-05.A2,Y.06-07.A2,0x121616,3040521,1-7-5,6,Pixel L1/2 EC,D2,,needs 121656,
Y.28-05.A2,Y.06-07.A2,0x111711,3040515,1-7-6,10,Pixel L1/2,L3,old,,
Y.27-05.A2,Y.06-07.A2,0x112556,3040502,1-7-7,12,Pixel L1/2,,new,,
Y.29-05.A2,Y.06-07.A2,0x111848,3040545,1-7-8,14,Pixel L1/2,L4,old,,
Y.25-14.A2,Y.06-07.A2,0x240105,3040359,1-7-9,1,SCT,,,,
Y.25-14.A2,Y.06-07.A2,0x240104,3040358,1-7-10,5,SCT,,,,
Y.25-14.A2,Y.06-07.A2,0x240100,3040354,1-7-11,11,SCT,,,,
Y.23-11.A2,Y.06-07.A2,0x22000c,3040323,1-7-12,13,SCT,,,,
,,,,,,,,,,
,,,,,,,,,,
,,,,,,,,,,
Y.16-14.A2,Y.06-07.A2,0x140083,3040672,1-8-1,0,IBL,,,,
Y.16-14.A2,Y.06-07.A2,0x140082,3040671,1-8-2,8,IBL,,,,
Y.28-05.A2,Y.06-07.A2,0x111712,3040516,1-8-3,2,Pixel L1/2,L3,old,,
Y.26-05.A2,Y.06-07.A2,0x130255,3040474,1-8-4,4,Pixel BL,B3,,,
Y.26-05.A2,Y.06-07.A2,0x130254,3040473,1-8-5,6,Pixel BL,B3,,,
Y.28-05.A2,Y.06-07.A2,0x111747,3040525,1-8-6,10,Pixel L1/2,L3,old,,
Y.28-05.A2,Y.06-07.A2,0x111748,3040526,1-8-7,12,Pixel L1/2,L3,old,,
Y.29-05.A2,Y.06-07.A2,0x111846,3040543,1-8-8,14,Pixel L1/2,L4,old,,
Y.25-14.A2,Y.06-07.A2,0x240107,3040361,1-8-9,1,SCT,,,,
Y.23-11.A2,Y.06-07.A2,0x22000f,3040326,1-8-10,5,SCT,,,,
Y.23-11.A2,Y.06-07.A2,0x22000d,3040324,1-8-11,11,SCT,,,,
Y.23-11.A2,Y.06-07.A2,0x22000e,3040325,1-8-12,13,SCT,,,,
,,,,,,,,,,
,,,,,,,,,,
,,,,,,,,,,
Y.16-14.A2,Y.06-07.A2,0x140060,3040661,1-9-1,0,IBL,,,,
Y.16-14.A2,Y.06-07.A2,0x140080,3040669,1-9-2,8,IBL,,,,
Y.27-05.A2,Y.06-07.A2,0x112516,3040489,1-9-3,2,Pixel L1/2,L2,new,,
Y.28-05.A2,Y.06-07.A2,0x111706,3040479,1-9-4,4,Pixel L1/2,L3,old,,
Y.29-05.A2,Y.06-07.A2,0x111809,3040538,1-9-5,6,Pixel L1/2,L4,old,,
Y.26-05.A2,Y.06-07.A2,0x130215,3040475,1-9-6,10,Pixel BL,B3,,,
Y.27-05.A2,Y.06-07.A2,0x112557,3040503,1-9-7,12,Pixel L1/2,,new,,
Y.27-05.A2,Y.06-07.A2,0x112551,3040498,1-9-8,14,Pixel L1/2,,new,,
Y.22-11.A2,Y.06-07.A2,0x21000c,3040305,1-9-9,1,SCT,,,,
Y.22-11.A2,Y.06-07.A2,0x21000f,3040308,1-9-10,5,SCT,,,,
Y.24-14.A2,Y.06-07.A2,0x23000d,3040351,1-9-11,11,SCT,,,,
Y.22-11.A2,Y.06-07.A2,0x210009,3040302,1-9-12,13,SCT,,,,
,,,,,,,,,,
,,,,,,,,,,
,,,,,,,,,,
Y.16-14.A2,Y.06-07.A2,0x140063,3040664,1-10-1,0,IBL,,(missing?),,
Y.16-14.A2,Y.06-07.A2,0x140081,3040670,1-10-2,8,IBL,,,,
Y.27-05.A2,Y.06-07.A2,0x112518,3040510,1-10-3,2,Pixel L1/2,L2,new,,
Y.27-05.A2,Y.06-07.A2,0x112511,3040485,1-10-4,4,Pixel L1/2,L2,new,,
Y.28-05.A2,Y.06-07.A2,0x111709,3040513,1-10-5,6,Pixel L1/2,L3,old,,
Y.26-05.A2,Y.06-07.A2,0x120356,3040464,1-10-6,10,Pixel L1/2 EC,D1,,,
Y.26-05.A2,Y.06-07.A2,0x130214,3040472,1-10-7,12,Pixel BL,B3,,,
Y.28-05.A2,Y.06-07.A2,0x111745,3040523,1-10-8,14,Pixel L1/2,L3,,,
Y.22-11.A2,Y.06-07.A2,0x21000e,3040307,1-10-9,1,SCT,,,,
Y.22-11.A2,Y.06-07.A2,0x21000d,3040306,1-10-10,5,SCT,,,,
Y.24-14.A2,Y.06-07.A2,0x230008,3040346,1-10-11,11,SCT,,,,
Y.22-11.A2,Y.06-07.A2,0x210008,3040301,1-10-12,13,SCT,,,,